%YAML 1.1
%TAG !u! tag:unity3d.com,2011:
--- !u!1 &7510044732308543953
GameObject:
  m_ObjectHideFlags: 0
  m_CorrespondingSourceObject: {fileID: 0}
  m_PrefabInstance: {fileID: 0}
  m_PrefabAsset: {fileID: 0}
  serializedVersion: 6
  m_Component:
  - component: {fileID: 7510044732308543959}
  - component: {fileID: 7510044732308543952}
  m_Layer: 0
  m_Name: Heroku Network Controller
  m_TagString: Untagged
  m_Icon: {fileID: 0}
  m_NavMeshLayer: 0
  m_StaticEditorFlags: 0
  m_IsActive: 1
--- !u!4 &7510044732308543959
Transform:
  m_ObjectHideFlags: 0
  m_CorrespondingSourceObject: {fileID: 0}
  m_PrefabInstance: {fileID: 0}
  m_PrefabAsset: {fileID: 0}
  m_GameObject: {fileID: 7510044732308543953}
  m_LocalRotation: {x: 0, y: 0, z: 0, w: 1}
  m_LocalPosition: {x: 5.7033043, y: -1.4294959, z: 0}
  m_LocalScale: {x: 1, y: 1, z: 1}
  m_Children: []
  m_Father: {fileID: 0}
  m_RootOrder: 0
  m_LocalEulerAnglesHint: {x: 0, y: 0, z: 0}
--- !u!114 &7510044732308543952
MonoBehaviour:
  m_ObjectHideFlags: 0
  m_CorrespondingSourceObject: {fileID: 0}
  m_PrefabInstance: {fileID: 0}
  m_PrefabAsset: {fileID: 0}
  m_GameObject: {fileID: 7510044732308543953}
  m_Enabled: 1
  m_EditorHideFlags: 0
  m_Script: {fileID: 11500000, guid: b8f8782fd39164b41ba0de6420c5c8dc, type: 3}
  m_Name: 
  m_EditorClassIdentifier: 
  url: ws://ma-pong-server.herokuapp.com/socket.io/?EIO=4&transport=websocket
  autoConnect: 1
  reconnectDelay: 5
  ackExpirationTime: 1800
  pingInterval: 25
  pingTimeout: 60
  networkContainer: {fileID: 7510044732308543959}
  playerSpawnPoint0: {fileID: 0}
  playerSpawnPoint1: {fileID: 0}
  ballSpawnPoint: {fileID: 0}
  playerPrefab: {fileID: 6809773503530610449, guid: 6b73a3e96b2527f42a9227c8152d0ad9,
    type: 3}
  otherPlayerPrefab: {fileID: 3199033728667804751, guid: 29b54fbf915206f4a8a061da7a80b940,
    type: 3}
  ballPrefab: {fileID: 6810799186868122479, guid: 93766864dfe728a4e91ffc902c818f50,
    type: 3}
